…
games <- seasons_schedule(seasons = 2019)

## Acquiring NBA basic team game logs for the 2018-19 Regular Season

game_ids <- games$idGame

game_1  <- game_ids[[1]]

game_1_pbp <- play_by_play_v2(game_1)

## Getting play by play for game 21800001

game_1_pbp

## # A tibble: 492 x 40
##    slugScore namePlayer1 teamNamePlayer1 slugTeamPlayer1 namePlayer2
##    <chr>     <chr>       <chr>           <chr>           <chr>      
##  1 <NA>      <NA>        <NA>            <NA>            <NA>       
##  2 <NA>      Al Horford  Celtics         BOS             Joel Embiid
##  3 <NA>      Robert Cov… 76ers           PHI             <NA>       
##  4 <NA>      <NA>        <NA>            <NA>            <NA>       
##  5 <NA>      Jayson Tat… Celtics         BOS             <NA>       
##  6 <NA>      Dario Saric 76ers           PHI             <NA>       
##  7 <NA>      Ben Simmons 76ers           PHI             Gordon Hay…
##  8 <NA>      Jaylen Bro… Celtics         BOS             <NA>       
##  9 <NA>      Ben Simmons 76ers           PHI             <NA>       
## 10 2 - 0     Joel Embiid 76ers           PHI             Ben Simmons
## # … with 482 more rows, and 35 more variables: teamNamePlayer2 <chr>,
## #   slugTeamPlayer2 <chr>, namePlayer3 <chr>, teamNamePlayer3 <chr>,
## #   slugTeamPlayer3 <chr>, slugTeamLeading <chr>, idGame <dbl>,
## #   numberEvent <dbl>, numberEventMessageType <dbl>,
## #   numberEventActionType <dbl>, numberPeriod <dbl>, idPersonType1 <dbl>,
## #   idPlayerNBA1 <dbl>, idTeamPlayer1 <dbl>, idPersonType2 <dbl>,
## #   idPlayerNBA2 <dbl>, idTeamPlayer2 <dbl>, idPersonType3 <dbl>,
## #   idPlayerNBA3 <dbl>, idTeamPlayer3 <dbl>, hasVideo <lgl>,
## #   timeStringWC <chr>, timeQuarter <chr>, descriptionPlayHome <chr>,
…
