…
… and votes on those bills1.

votes <- read_csv("https://raw.githubusercontent.com/jtcies/jtcies_site/master/content/data/pa-par/bill_votes.csv")

votes

## # A tibble: 2,108 x 3
##     bill rep         vote 
##    <dbl> <chr>       <chr>
##  1  2154 BENNINGHOFF yay  
##  2  2154 BERNSTINE   yay  
##  3  2154 BLOOM       yay  
##  4  2154 BROWN, R.   yay  
##  5  2154 CAUSER      yay  
##  6  2154 CHRISTIANA  yay  
##  7  2154 COOK        yay  
##  8  2154 CORR        yay  
##  9  2154 COX         yay  
## 10  2154 CULVER      yay  
## # … with 2,098 more rows
…
election_both <- election_tidy %>% 
  filter(year == 2016) %>% 
  left_join(
    election_tidy %>% 
      filter(year == 2018), 
    by = "district",
    suffix = c("_2016", "_2018")
    ) %>% 
  mutate(same = representative_2016 == representative_2018)

election_both

## # A tibble: 203 x 20
##    district incumbent_2016 status_2016 party_2016 representative_… votes_2016
##       <int> <chr>          <chr>       <chr>      <chr>                 <dbl>
##  1        1 Pat Harkins    Re-elected  Democratic Pat Harkins           14785
##  2        2 Florindo Fabr… Re-elected  Democratic Florindo Fabriz…      16051
##  3        3 Ryan Bizzarro  Re-elected  Democratic Ryan Bizzarro         19595
##  4        4 Curt Sonney    Re-elected  Republican Curt Sonney           22790
##  5        5 Barry Jozwiak  Re-elected  Republican Barry Jozwiak         23936
##  6        6 Brad Roae      Re-elected  Republican Brad Roae             17197
##  7        7 Mark Longietti Re-elected  Democratic Mark Longietti        27497
##  8        8 Tedd Nesbit    Re-elected  Republican Tedd Nesbit           18853
##  9        9 Chris Sainato  Re-elected  Democratic Chris Sainato         24848
## 10       10 Jaret Gibbons  Defeated    Republican Aaron Bernstine       15807
## # … with 193 more rows, and 14 more variables: year_2016 <dbl>,
## #   percent_2016 <dbl>, win_2016 <lgl>, margin_2016 <dbl>,
## #   incumbent_2018 <chr>, status_2018 <chr>, party_2018 <chr>,
## #   representative_2018 <chr>, votes_2018 <dbl>, year_2018 <dbl>,
## #   percent_2018 <dbl>, win_2018 <lgl>, margin_2018 <dbl>, same <lgl>
…
